1 10 20
100 200 125
201 210 89
900 1000 174
652153 972534 525
864263 967628 507
305767 628486 509
735138 868515 525
374409 821065 509
180718 420923 449
76850 693674 509
451903 567040 470
380066 735605 509
897307 976390 507
313274 562666 470
587896 881574 525
961488 985538 458
525866 766272 509
907953 967039 507
894223 984075 507
8563 373257 443
638602 699454 442
268333 761514 509
997896 999248 396
928101 982784 507
803531 857863 525
465938 834791 509
665256 718912 504
556216 669166 509
778037 933739 525
579471 723964 509
626552 806533 504
735352 858545 525
865577 993453 507
813660 879650 525
193062 902149 525
672995 768553 504
696802 898011 525
617742 641898 509
562488 647940 509
143266 825345 509
971316 984767 427
168688 454978 449
284619 764939 509
940040 982033 458
964770 973809 458
882925 915406 476
978490 994490 427
830935 965590 525
624052 781092 509
693564 803002 504
463438 760088 509
635755 644097 416
520772 773508 509
80564 304339 443
282623 843144 525
77187 554802 470
323943 324638 384
446910 779753 509
280920 747271 509
186827 568018 470
458797 818838 509
830348 967939 525
237000 984063 525
728675 829889 468
350500 780744 509
380032 758822 509
459776 672533 509
534741 676573 509
824753 874197 525
111518 190544 383
923853 961447 507
890154 891491 339
781306 869196 525
302152 835371 509
273995 916784 525
215268 638660 509
885563 890741 445
528519 915047 525
955401 978233 458
362880 711170 509
543817 848524 525
800955 875941 525
216373 835730 509
158202 473910 449
795174 903068 525
582017 995383 525
657692 834759 504
831000 966419 525
486723 649134 509
643577 956670 525
247503 405413 441
519267 852745 525
635974 700730 442
883022 899853 445
377368 817359 509
352744 912112 525
717480 764543 424
958872 998007 458
609776 978020 525
337519 638770 509
284431 835272 509
774331 851140 525
585015 761819 509
200183 464810 449
169488 465542 449
435033 461607 444
829803 954494 525
75784 323386 443
845412 975088 507
291767 471309 449
55792 243704 443
957666 960161 352
94763 501616 449
927013 987463 507
653699 897197 525
260608 309974 407
194377 724594 509
407805 506305 449
922913 991291 507
854295 986762 507
673277 756410 504
211930 638357 509
922890 934786 476
236588 751323 509
7919 579563 470
115602 593427 470
204103 468040 449
916648 998094 507
1591 482610 449
311341 540693 470
76312 568501 470
277584 874017 525
97346 726568 509
567871 914597 525
749904 752150 362
823636 850613 525
10 1 20
9999 25 262
10000 50604 324
20305 19204 274
